Observations to grid designation to create a data cube — grid_designation • simcuber
…
# Create occurrence cube
grid_designation(
  observations = observations_sf,
  grid = grid_df,
  seed = 123
)
#> Simple feature collection with 30 features and 3 fields
#> Geometry type: POLYGON
#> Dimension:     XY
#> Bounding box:  xmin: 3840994 ymin: 3110833 xmax: 3841994 ymax: 3112033
#> Projected CRS: ETRS89-extended / LAEA Europe
#> # A tibble: 30 × 4
#>    id        n min_coord_uncertainty                                    geometry
#>  * <chr> <int>                 <dbl>                               <POLYGON [m]>
#>  1 12        1                  16.3 ((3841194 3111233, 3841394 3111233, 384139…
#>  2 26        1                  33.9 ((3840994 3111833, 3841194 3111833, 384119…
#>  3 5         1                  73.8 ((3841794 3110833, 3841994 3110833, 384199…
#>  4 6         1                  47.8 ((3840994 3111033, 3841194 3111033, 384119…
#>  5 1         0                  NA   ((3840994 3110833, 3841194 3110833, 384119…
#>  6 2         0                  NA   ((3841194 3110833, 3841394 3110833, 384139…
#>  7 3         0                  NA   ((3841394 3110833, 3841594 3110833, 384159…
#>  8 4         0                  NA   ((3841594 3110833, 3841794 3110833, 384179…
#>  9 7         0                  NA   ((3841194 3111033, 3841394 3111033, 384139…
#> 10 8         0                  NA   ((3841394 3111033, 3841594 3111033, 384159…
#> # ℹ 20 more rows
…
